// Jest Snapshot v1, https://goo.gl/fbAQLP

exports[`AccountInformations component should match AccountInformations with data snapshot 1`] = `
<View>
  <View
    style={
      Object {
        "alignItems": "center",
        "backgroundColor": "#ececec",
        "borderColor": "#d6d7da",
        "borderTopLeftRadius": 3,
        "borderTopRightRadius": 3,
        "borderWidth": 0.5,
        "flexDirection": "row",
        "justifyContent": "center",
        "padding": 5,
        "width": "100%",
      }
    }
  >
    <View
      style={
        Object {
          "alignItems": "center",
          "flexDirection": "row",
        }
      }
    >
      <Avatar
        backgroundColor="#9e9e9e"
        borderColor="rgba(0,0,0,.1)"
        borderRadius={15}
        borderWidth={1}
        color="#ffffff"
        image={
          <Image
            source={
              Object {
                "uri": "https://foobar.com/Alice.png/profil",
              }
            }
          />
        }
        size={30}
      />
      <Text
        accessible={true}
        allowFontScaling={true}
        disabled={false}
        ellipsizeMode="tail"
        style={
          Object {
            "marginLeft": 5,
          }
        }
      >
        Alice
      </Text>
    </View>
  </View>
  <View
    style={
      Object {
        "alignItems": "center",
        "flexDirection": "row",
        "justifyContent": "center",
        "paddingBottom": 5,
        "paddingTop": 5,
        "width": "100%",
      }
    }
  >
    <Text
      accessible={true}
      allowFontScaling={true}
      disabled={false}
      ellipsizeMode="tail"
      style={
        Object {
          "fontSize": 15,
        }
      }
    >
      Foobar
    </Text>
    <Image
      resizeMode="contain"
      source={
        Object {
          "uri": "https://foobar.com/logo.png/",
        }
      }
      style={
        Object {
          "height": 40,
          "marginLeft": 10,
          "width": 40,
        }
      }
    />
  </View>
  <SeparatorComponent />
  <View
    style={
      Object {
        "padding": 10,
        "paddingBottom": 10,
        "paddingTop": 10,
      }
    }
  />
</View>
`;

exports[`AccountInformations component should match AccountInformations with data snapshot 2`] = `
<View>
  <View
    style={
      Object {
        "alignItems": "center",
        "backgroundColor": "#ececec",
        "borderColor": "#d6d7da",
        "borderTopLeftRadius": 3,
        "borderTopRightRadius": 3,
        "borderWidth": 0.5,
        "flexDirection": "row",
        "justifyContent": "center",
        "padding": 5,
        "width": "100%",
      }
    }
  >
    <Icon
      allowFontScaling={false}
      color="#54902a"
      name="account-circle"
      size={25}
    />
  </View>
  <View
    style={
      Object {
        "alignItems": "center",
        "flexDirection": "row",
        "justifyContent": "center",
        "paddingBottom": 5,
        "paddingTop": 5,
        "width": "100%",
      }
    }
  >
    <Text
      accessible={true}
      allowFontScaling={true}
      disabled={false}
      ellipsizeMode="tail"
      style={
        Object {
          "fontSize": 15,
        }
      }
    >
      Foobar
    </Text>
    <Image
      resizeMode="contain"
      source={
        Object {
          "uri": "https://foobar.com/logo.png/",
        }
      }
      style={
        Object {
          "height": 40,
          "marginLeft": 10,
          "width": 40,
        }
      }
    />
  </View>
  <SeparatorComponent />
  <View
    style={
      Object {
        "padding": 10,
        "paddingBottom": 10,
        "paddingTop": 10,
      }
    }
  />
</View>
`;
