// Jest Snapshot v1, https://goo.gl/fbAQLP

exports[`Channels component should match Channels with data snapshot 1`] = `
<glamorous(View)>
  <View
    style={
      Object {
        "flex": 1,
        "marginTop": 40,
      }
    }
  >
    <View
      style={
        Object {
          "flex": 1,
        }
      }
    >
      <Text
        accessible={true}
        allowFontScaling={true}
        disabled={false}
        ellipsizeMode="tail"
        style={
          Object {
            "color": "white",
            "fontSize": 12,
            "marginLeft": 14,
            "opacity": 0.7,
          }
        }
      >
        CHANNELS
      </Text>
      <Apollo(DumbPublicChannels)
        listStyle={
          Object {
            "noContentIconColor": "white",
            "noContentText": Object {
              "color": "white",
              "fontSize": 13,
              "opacity": 0.6,
            },
          }
        }
      />
    </View>
  </View>
  <View
    style={
      Object {
        "flex": 1,
        "marginTop": 40,
      }
    }
  >
    <View
      style={
        Object {
          "flex": 1,
        }
      }
    >
      <Text
        accessible={true}
        allowFontScaling={true}
        disabled={false}
        ellipsizeMode="tail"
        style={
          Object {
            "color": "white",
            "fontSize": 12,
            "marginLeft": 14,
            "opacity": 0.7,
          }
        }
      >
        PRIVATE DISCUSSIONS
      </Text>
      <Apollo(DumbPrivateChannels)
        listStyle={
          Object {
            "noContentIconColor": "white",
            "noContentText": Object {
              "color": "white",
              "fontSize": 13,
              "opacity": 0.6,
            },
          }
        }
      />
    </View>
  </View>
</glamorous(View)>
`;
