// Jest Snapshot v1, https://goo.gl/fbAQLP

exports[`ChannelItem component should match private ChannelItem snapshot 1`] = `
<View
  accessibilityComponentType={undefined}
  accessibilityLabel={undefined}
  accessibilityTraits={undefined}
  accessible={true}
  collapsable={undefined}
  hitSlop={undefined}
  isTVSelectable={true}
  nativeID={undefined}
  onLayout={undefined}
  onResponderGrant={[Function]}
  onResponderMove={[Function]}
  onResponderRelease={[Function]}
  onResponderTerminate={[Function]}
  onResponderTerminationRequest={[Function]}
  onStartShouldSetResponder={[Function]}
  style={
    Object {
      "opacity": 1,
    }
  }
  testID={undefined}
  tvParallaxProperties={undefined}
>
  <View
    style={
      Object {
        "flexDirection": "row",
        "justifyContent": "space-between",
        "padding": 5,
        "paddingLeft": 15,
        "paddingRight": 10,
      }
    }
  >
    <View
      style={
        Object {
          "width": "80%",
        }
      }
    >
      <View
        style={
          Object {
            "alignItems": "center",
            "flex": 1,
            "flexDirection": "row",
          }
        }
      >
        <Image
          source={
            Object {
              "uri": "http//example.nova-ideo.com/principals/users/JohnDoe/avatar.jpgprofil",
            }
          }
          style={
            Object {
              "borderColor": "rgba(0,0,0,.1)",
              "borderRadius": 15,
              "borderWidth": 1,
              "height": 30,
              "width": 30,
            }
          }
        />
        <Text
          accessible={true}
          allowFontScaling={true}
          disabled={false}
          ellipsizeMode="tail"
          style={
            Array [
              Object {
                "color": "white",
                "fontSize": 15,
                "marginLeft": 10,
                "opacity": 0.7,
              },
              Object {},
            ]
          }
        >
          Foobar
        </Text>
      </View>
    </View>
  </View>
</View>
`;

exports[`ChannelItem component should match public ChannelItem snapshot 1`] = `
<View
  accessibilityComponentType={undefined}
  accessibilityLabel={undefined}
  accessibilityTraits={undefined}
  accessible={true}
  collapsable={undefined}
  hitSlop={undefined}
  isTVSelectable={true}
  nativeID={undefined}
  onLayout={undefined}
  onResponderGrant={[Function]}
  onResponderMove={[Function]}
  onResponderRelease={[Function]}
  onResponderTerminate={[Function]}
  onResponderTerminationRequest={[Function]}
  onStartShouldSetResponder={[Function]}
  style={
    Object {
      "opacity": 1,
    }
  }
  testID={undefined}
  tvParallaxProperties={undefined}
>
  <View
    style={
      Object {
        "flexDirection": "row",
        "justifyContent": "space-between",
        "padding": 5,
        "paddingLeft": 15,
        "paddingRight": 10,
      }
    }
  >
    <View
      style={
        Object {
          "width": "80%",
        }
      }
    >
      <View
        style={
          Object {
            "alignItems": "flex-start",
            "flexDirection": "row",
          }
        }
      >
        <Text
          accessible={true}
          allowFontScaling={true}
          disabled={false}
          ellipsizeMode="tail"
        />
        <Text
          accessible={true}
          allowFontScaling={true}
          disabled={false}
          ellipsizeMode="tail"
          numberOfLines={1}
          style={
            Array [
              Object {
                "color": "white",
                "fontSize": 15,
                "marginLeft": 10,
                "opacity": 0.7,
              },
              Object {},
            ]
          }
        >
          Foobar
        </Text>
      </View>
    </View>
  </View>
</View>
`;
