// Jest Snapshot v1, https://goo.gl/fbAQLP

exports[`Examination component should match Examination bottom snapshot 1`] = `
<View
  accessibilityComponentType={undefined}
  accessibilityLabel={undefined}
  accessibilityTraits={undefined}
  accessible={true}
  collapsable={undefined}
  hitSlop={
    Object {
      "bottom": 15,
      "left": 15,
      "right": 15,
      "top": 15,
    }
  }
  isTVSelectable={true}
  nativeID={undefined}
  onLayout={undefined}
  onResponderGrant={[Function]}
  onResponderMove={[Function]}
  onResponderRelease={[Function]}
  onResponderTerminate={[Function]}
  onResponderTerminationRequest={[Function]}
  onStartShouldSetResponder={[Function]}
  style={
    Object {
      "alignItems": "center",
      "backgroundColor": "#e7e7e7",
      "borderColor": "#ddd",
      "borderRadius": 3,
      "borderWidth": 0.5,
      "elevation": 2,
      "flexDirection": "column",
      "justifyContent": "center",
      "opacity": 1,
      "padding": 5,
      "paddingBottom": 7,
      "paddingTop": 7,
      "shadowColor": "gray",
      "shadowOffset": Object {
        "height": 1,
        "width": 0,
      },
      "shadowOpacity": 0.8,
      "shadowRadius": 2,
      "width": 25,
    }
  }
  testID={undefined}
  tvParallaxProperties={undefined}
>
  <View>
    <Text
      accessible={true}
      allowFontScaling={false}
      disabled={false}
      ellipsizeMode="tail"
      style={
        Array [
          Object {
            "color": undefined,
            "fontSize": 15,
          },
          Array [
            Object {
              "color": "gray",
              "textShadowColor": "gray",
              "textShadowRadius": 4,
            },
            Object {},
          ],
          Object {
            "fontFamily": "ExponentFont-mock-material-community",
            "fontStyle": "normal",
            "fontWeight": "normal",
          },
        ]
      }
    >
      
    </Text>
    <Text
      accessible={true}
      allowFontScaling={false}
      disabled={false}
      ellipsizeMode="tail"
      style={
        Array [
          Object {
            "color": undefined,
            "fontSize": 15,
          },
          Array [
            Object {
              "color": "gray",
              "textShadowColor": "gray",
              "textShadowRadius": 4,
            },
            Object {},
          ],
          Object {
            "fontFamily": "ExponentFont-mock-material-community",
            "fontStyle": "normal",
            "fontWeight": "normal",
          },
        ]
      }
    >
      
    </Text>
    <Text
      accessible={true}
      allowFontScaling={false}
      disabled={false}
      ellipsizeMode="tail"
      style={
        Array [
          Object {
            "color": undefined,
            "fontSize": 15,
          },
          Array [
            Object {
              "color": "gray",
              "textShadowColor": "gray",
              "textShadowRadius": 4,
            },
            Object {
              "color": "#4eaf4e",
              "textShadowColor": "#4eaf4e",
              "textShadowOffset": Object {
                "height": 0.1,
                "width": 0.1,
              },
            },
          ],
          Object {
            "fontFamily": "ExponentFont-mock-material-community",
            "fontStyle": "normal",
            "fontWeight": "normal",
          },
        ]
      }
    >
      
    </Text>
  </View>
</View>
`;

exports[`Examination component should match Examination middle snapshot 1`] = `
<View
  accessibilityComponentType={undefined}
  accessibilityLabel={undefined}
  accessibilityTraits={undefined}
  accessible={true}
  collapsable={undefined}
  hitSlop={
    Object {
      "bottom": 15,
      "left": 15,
      "right": 15,
      "top": 15,
    }
  }
  isTVSelectable={true}
  nativeID={undefined}
  onLayout={undefined}
  onResponderGrant={[Function]}
  onResponderMove={[Function]}
  onResponderRelease={[Function]}
  onResponderTerminate={[Function]}
  onResponderTerminationRequest={[Function]}
  onStartShouldSetResponder={[Function]}
  style={
    Object {
      "alignItems": "center",
      "backgroundColor": "#e7e7e7",
      "borderColor": "#ddd",
      "borderRadius": 3,
      "borderWidth": 0.5,
      "elevation": 2,
      "flexDirection": "column",
      "justifyContent": "center",
      "opacity": 1,
      "padding": 5,
      "paddingBottom": 7,
      "paddingTop": 7,
      "shadowColor": "gray",
      "shadowOffset": Object {
        "height": 1,
        "width": 0,
      },
      "shadowOpacity": 0.8,
      "shadowRadius": 2,
      "width": 25,
    }
  }
  testID={undefined}
  tvParallaxProperties={undefined}
>
  <View>
    <Text
      accessible={true}
      allowFontScaling={false}
      disabled={false}
      ellipsizeMode="tail"
      style={
        Array [
          Object {
            "color": undefined,
            "fontSize": 15,
          },
          Array [
            Object {
              "color": "gray",
              "textShadowColor": "gray",
              "textShadowRadius": 4,
            },
            Object {},
          ],
          Object {
            "fontFamily": "ExponentFont-mock-material-community",
            "fontStyle": "normal",
            "fontWeight": "normal",
          },
        ]
      }
    >
      
    </Text>
    <Text
      accessible={true}
      allowFontScaling={false}
      disabled={false}
      ellipsizeMode="tail"
      style={
        Array [
          Object {
            "color": undefined,
            "fontSize": 15,
          },
          Array [
            Object {
              "color": "gray",
              "textShadowColor": "gray",
              "textShadowRadius": 4,
            },
            Object {
              "color": "#ef6e18",
              "textShadowColor": "#ef6e18",
              "textShadowOffset": Object {
                "height": 0.1,
                "width": 0.1,
              },
            },
          ],
          Object {
            "fontFamily": "ExponentFont-mock-material-community",
            "fontStyle": "normal",
            "fontWeight": "normal",
          },
        ]
      }
    >
      
    </Text>
    <Text
      accessible={true}
      allowFontScaling={false}
      disabled={false}
      ellipsizeMode="tail"
      style={
        Array [
          Object {
            "color": undefined,
            "fontSize": 15,
          },
          Array [
            Object {
              "color": "gray",
              "textShadowColor": "gray",
              "textShadowRadius": 4,
            },
            Object {},
          ],
          Object {
            "fontFamily": "ExponentFont-mock-material-community",
            "fontStyle": "normal",
            "fontWeight": "normal",
          },
        ]
      }
    >
      
    </Text>
  </View>
</View>
`;

exports[`Examination component should match Examination top snapshot 1`] = `
<View
  accessibilityComponentType={undefined}
  accessibilityLabel={undefined}
  accessibilityTraits={undefined}
  accessible={true}
  collapsable={undefined}
  hitSlop={
    Object {
      "bottom": 15,
      "left": 15,
      "right": 15,
      "top": 15,
    }
  }
  isTVSelectable={true}
  nativeID={undefined}
  onLayout={undefined}
  onResponderGrant={[Function]}
  onResponderMove={[Function]}
  onResponderRelease={[Function]}
  onResponderTerminate={[Function]}
  onResponderTerminationRequest={[Function]}
  onStartShouldSetResponder={[Function]}
  style={
    Object {
      "alignItems": "center",
      "backgroundColor": "#e7e7e7",
      "borderColor": "#ddd",
      "borderRadius": 3,
      "borderWidth": 0.5,
      "elevation": 2,
      "flexDirection": "column",
      "justifyContent": "center",
      "opacity": 1,
      "padding": 5,
      "paddingBottom": 7,
      "paddingTop": 7,
      "shadowColor": "gray",
      "shadowOffset": Object {
        "height": 1,
        "width": 0,
      },
      "shadowOpacity": 0.8,
      "shadowRadius": 2,
      "width": 25,
    }
  }
  testID={undefined}
  tvParallaxProperties={undefined}
>
  <View>
    <Text
      accessible={true}
      allowFontScaling={true}
      disabled={false}
      ellipsizeMode="tail"
    />
    <Text
      accessible={true}
      allowFontScaling={true}
      disabled={false}
      ellipsizeMode="tail"
    />
    <Text
      accessible={true}
      allowFontScaling={true}
      disabled={false}
      ellipsizeMode="tail"
    />
  </View>
</View>
`;
